{
  "project_info": {
    "project_number": "914710450976",
    "project_id": "sunmoonmarket-715d4",
    "storage_bucket": "sunmoonmarket-715d4.appspot.com"
  },
  "client": [
    {
      "client_info": {
        "mobilesdk_app_id": "1:914710450976:android:d47698e9d529504b227d45",
        "android_client_info": {
          "package_name": "com.react_native_01"
        }
      },
      "oauth_client": [
        {
          "client_id": "914710450976-ur1v7i34o7hj833akcbrkb8k2ka2mm5e.apps.googleusercontent.com",
          "client_type": 3
        }
      ],
      "api_key": [
        {
          "current_key": "AIzaSyBmnvOSe-Je3QL1OpQyCUDk0iT_1D5lvbQ"
        }
      ],
      "services": {
        "appinvite_service": {
          "other_platform_oauth_client": [
            {
              "client_id": "914710450976-ur1v7i34o7hj833akcbrkb8k2ka2mm5e.apps.googleusercontent.com",
              "client_type": 3
            }
          ]
        }
      }
    }
  ],
  "configuration_version": "1"
}